PSTAT131 Final Project
…
important <- lol_blue[c( "blue_wins", "blue_first_blood", 
                   "blue_kills",  "blue_deaths",
                   "blue_assists","blue_elite_monsters", 
                   "blue_dragons", "blue_total_gold", 
                   "blue_avg_level", "blue_total_experience", 
                   "blue_gold_diff", "blue_experience_diff", 
                   "blue_total_minions_killed")]

important

## # A tibble: 9,879 x 13
##    blue_wins blue_first_blood blue_kills blue_deaths blue_assists
##        <dbl>            <dbl>      <dbl>       <dbl>        <dbl>
##  1         0                1          9           6           11
##  2         0                0          5           5            5
##  3         0                0          7          11            4
##  4         0                0          4           5            5
##  5         0                0          6           6            6
##  6         1                0          5           3            6
##  7         1                1          7           6            7
##  8         0                0          5          13            3
##  9         0                0          7           7            8
## 10         1                1          4           5            5
## # ... with 9,869 more rows, and 8 more variables: blue_elite_monsters <dbl>,
## #   blue_dragons <dbl>, blue_total_gold <dbl>, blue_avg_level <dbl>,
## #   blue_total_experience <dbl>, blue_gold_diff <dbl>,
## #   blue_experience_diff <dbl>, blue_total_minions_killed <dbl>
…
Then we set up the grid.

forest_grid <- grid_regular(mtry(range = c(1, 12)), 
                            trees(range = c(1, 10)),
                            min_n(range = c(1, 10)),
                            levels = 23)
forest_grid

## # A tibble: 1,200 x 3
##     mtry trees min_n
##    <int> <int> <int>
##  1     1     1     1
##  2     2     1     1
##  3     3     1     1
##  4     4     1     1
##  5     5     1     1
##  6     6     1     1
##  7     7     1     1
##  8     8     1     1
##  9     9     1     1
## 10    10     1     1
## # ... with 1,190 more rows
…
Then we collect the best performing
forest, and present its roc_auc value.

collection2 <- collect_metrics(forest) %>% 
  arrange(desc(mean))

collection2

## # A tibble: 1,200 x 9
##     mtry trees min_n .metric .estimator  mean     n std_err .config             
##    <int> <int> <int> <chr>   <chr>      <dbl> <int>   <dbl> <chr>               
##  1     1    10    10 roc_auc binary     0.790     5 0.00573 Preprocessor1_Model~
##  2     1     9    10 roc_auc binary     0.789     5 0.00492 Preprocessor1_Model~
##  3     1    10     4 roc_auc binary     0.789     5 0.00508 Preprocessor1_Model~
##  4     1    10     6 roc_auc binary     0.789     5 0.00446 Preprocessor1_Model~
##  5     1    10     5 roc_auc binary     0.789     5 0.00632 Preprocessor1_Model~
##  6     1    10     7 roc_auc binary     0.789     5 0.00588 Preprocessor1_Model~
##  7     1     9     9 roc_auc binary     0.789     5 0.00443 Preprocessor1_Model~
##  8     1    10     8 roc_auc binary     0.788     5 0.00489 Preprocessor1_Model~
##  9     1     9     5 roc_auc binary     0.788     5 0.00769 Preprocessor1_Model~
## 10     1     8     6 roc_auc binary     0.787     5 0.00491 Preprocessor1_Model~
## # ... with 1,190 more rows
…
Then we collect the best performing
forest, and present its roc_auc value.

collection4 <- collect_metrics(elastic) %>% arrange(desc(mean))
collection4

## # A tibble: 800 x 8
##    penalty mixture .metric .estimator  mean     n std_err .config               
##      <dbl>   <dbl> <chr>   <chr>      <dbl> <int>   <dbl> <chr>                 
##  1 0.0144    1     roc_auc binary     0.811     5 0.00393 Preprocessor1_Model387
##  2 0.0144    0.947 roc_auc binary     0.811     5 0.00395 Preprocessor1_Model367
##  3 0.0144    0.842 roc_auc binary     0.811     5 0.00398 Preprocessor1_Model327
##  4 0.0144    0.789 roc_auc binary     0.811     5 0.00399 Preprocessor1_Model307
##  5 0.0144    0.895 roc_auc binary     0.811     5 0.00396 Preprocessor1_Model347
##  6 0.0144    0.737 roc_auc binary     0.811     5 0.00399 Preprocessor1_Model287
##  7 0.0144    0.684 roc_auc binary     0.811     5 0.00400 Preprocessor1_Model267
##  8 0.00428   1     roc_auc binary     0.811     5 0.00397 Preprocessor1_Model386
##  9 0.00428   0.947 roc_auc binary     0.811     5 0.00397 Preprocessor1_Model366
## 10 0.0144    0.632 roc_auc binary     0.811     5 0.00400 Preprocessor1_Model247
## # ... with 790 more rows
…
